<?xml version='1.0' encoding='UTF-8' standalone='yes' ?>
<gpx version="1.1" xmlns="http://www.topografix.com/GPX/1/1" xmlns:geotracker="http://ilyabogdanovich.com/gpx/extensions/geotracker" xmlns:xsi="http://www.w3.org/2001/XMLSchema-instance" xsi:schemaLocation="http://www.topografix.com/GPX/1/1 http://www.topografix.com/GPX/1/1/gpx.xsd" creator="Geo Tracker 4.0.2.1750 for Android by Ilya Bogdanovich">
  <metadata>
    <name>Feb 1, 2021 12:26:48 PM</name>
    <author>
      <name>Recorded in Geo Tracker for Android from Ilya Bogdanovich</name>
      <link href="https://play.google.com/store/apps/details?id=com.ilyabogdanovich.geotracker" />
    </author>
    <link href="https://play.google.com/store/apps/details?id=com.ilyabogdanovich.geotracker" />
    <time>2021-02-01T05:26:48.700Z</time>
  </metadata>
  <trk>
    <name>Feb 1, 2021 12:26:48 PM</name>
    <src>Recorded in Geo Tracker for Android from Ilya Bogdanovich</src>
    <link href="https://play.google.com/store/apps/details?id=com.ilyabogdanovich.geotracker" />
    <extensions>
      <geotracker:meta>
        <length>1059.14</length>
        <duration>165306</duration>
        <creationtime>2021-02-01T05:26:48.700Z</creationtime>
        <activity>0</activity>
      </geotracker:meta>
    </extensions>
    <trkseg>
      <trkpt lat="18.796218" lon="99.032962">
        <ele>254</ele>
        <time>2021-02-01T05:26:50.000Z</time>
        <extensions>
          <geotracker:meta c="0" s="0" />
        </extensions>
      </trkpt>
      <trkpt lat="18.796214" lon="99.032851">
        <ele>254</ele>
        <time>2021-02-01T05:27:03.000Z</time>
        <extensions>
          <geotracker:meta c="4.35" s="4.04" />
        </extensions>
      </trkpt>
      <trkpt lat="18.796167" lon="99.032746">
        <ele>253</ele>
        <time>2021-02-01T05:27:05.000Z</time>
        <extensions>
          <geotracker:meta c="4.18" s="5.81" />
        </extensions>
      </trkpt>
      <trkpt lat="18.7961" lon="99.032623">
        <ele>253</ele>
        <time>2021-02-01T05:27:08.000Z</time>
        <extensions>
          <geotracker:meta c="4.12" s="4.83" />
        </extensions>
      </trkpt>
      <trkpt lat="18.79603" lon="99.032515">
        <ele>253</ele>
        <time>2021-02-01T05:27:10.000Z</time>
        <extensions>
          <geotracker:meta c="4.22" s="7.22" />
        </extensions>
      </trkpt>
      <trkpt lat="18.795969" lon="99.032365">
        <ele>253</ele>
        <time>2021-02-01T05:27:12.000Z</time>
        <extensions>
          <geotracker:meta c="4.28" s="8.63" />
        </extensions>
      </trkpt>
      <trkpt lat="18.795914" lon="99.032205">
        <ele>254</ele>
        <time>2021-02-01T05:27:14.000Z</time>
        <extensions>
          <geotracker:meta c="4.24" s="7.2" />
        </extensions>
      </trkpt>
      <trkpt lat="18.79587" lon="99.032108">
        <ele>254</ele>
        <time>2021-02-01T05:27:16.000Z</time>
        <extensions>
          <geotracker:meta c="4.19" s="5.19" />
        </extensions>
      </trkpt>
      <trkpt lat="18.795808" lon="99.031988">
        <ele>254</ele>
        <time>2021-02-01T05:27:18.000Z</time>
        <extensions>
          <geotracker:meta c="4.2" s="7.42" />
        </extensions>
      </trkpt>
      <trkpt lat="18.79573" lon="99.031847">
        <ele>252</ele>
        <time>2021-02-01T05:27:20.000Z</time>
        <extensions>
          <geotracker:meta c="4.19" s="9.68" />
        </extensions>
      </trkpt>
      <trkpt lat="18.795676" lon="99.031767">
        <ele>252</ele>
        <time>2021-02-01T05:27:21.000Z</time>
        <extensions>
          <geotracker:meta c="4.19" s="10.27" />
        </extensions>
      </trkpt>
      <trkpt lat="18.795631" lon="99.031677">
        <ele>252</ele>
        <time>2021-02-01T05:27:22.000Z</time>
        <extensions>
          <geotracker:meta c="4.2" s="10.31" />
        </extensions>
      </trkpt>
      <trkpt lat="18.795547" lon="99.031517">
        <ele>251</ele>
        <time>2021-02-01T05:27:24.000Z</time>
        <extensions>
          <geotracker:meta c="4.22" s="9.34" />
        </extensions>
      </trkpt>
      <trkpt lat="18.795464" lon="99.031375">
        <ele>251</ele>
        <time>2021-02-01T05:27:26.000Z</time>
        <extensions>
          <geotracker:meta c="4.2" s="8.23" />
        </extensions>
      </trkpt>
      <trkpt lat="18.795398" lon="99.031252">
        <ele>251</ele>
        <time>2021-02-01T05:27:28.000Z</time>
        <extensions>
          <geotracker:meta c="4.14" s="6.33" />
        </extensions>
      </trkpt>
      <trkpt lat="18.79534" lon="99.031178">
        <ele>252</ele>
        <time>2021-02-01T05:27:30.000Z</time>
        <extensions>
          <geotracker:meta c="3.97" s="3.67" />
        </extensions>
      </trkpt>
      <trkpt lat="18.795244" lon="99.031144">
        <ele>251</ele>
        <time>2021-02-01T05:27:33.000Z</time>
        <extensions>
          <geotracker:meta c="3.11" s="4.58" />
        </extensions>
      </trkpt>
      <trkpt lat="18.795114" lon="99.031185">
        <ele>251</ele>
        <time>2021-02-01T05:27:36.000Z</time>
        <extensions>
          <geotracker:meta c="2.68" s="5.67" />
        </extensions>
      </trkpt>
      <trkpt lat="18.794998" lon="99.031229">
        <ele>252</ele>
        <time>2021-02-01T05:27:38.000Z</time>
        <extensions>
          <geotracker:meta c="2.71" s="7.8" />
        </extensions>
      </trkpt>
      <trkpt lat="18.79488" lon="99.03128">
        <ele>252</ele>
        <time>2021-02-01T05:27:40.000Z</time>
        <extensions>
          <geotracker:meta c="2.72" s="6.25" />
        </extensions>
      </trkpt>
      <trkpt lat="18.794779" lon="99.031333">
        <ele>252</ele>
        <time>2021-02-01T05:27:42.000Z</time>
        <extensions>
          <geotracker:meta c="2.67" s="6.85" />
        </extensions>
      </trkpt>
      <trkpt lat="18.794645" lon="99.031417">
        <ele>253</ele>
        <time>2021-02-01T05:27:44.000Z</time>
        <extensions>
          <geotracker:meta c="2.59" s="8.97" />
        </extensions>
      </trkpt>
      <trkpt lat="18.794506" lon="99.031515">
        <ele>253</ele>
        <time>2021-02-01T05:27:46.000Z</time>
        <extensions>
          <geotracker:meta c="2.56" s="8.86" />
        </extensions>
      </trkpt>
      <trkpt lat="18.794416" lon="99.031595">
        <ele>253</ele>
        <time>2021-02-01T05:27:48.000Z</time>
        <extensions>
          <geotracker:meta c="2.5" s="3.99" />
        </extensions>
      </trkpt>
      <trkpt lat="18.794311" lon="99.031701">
        <ele>253</ele>
        <time>2021-02-01T05:27:51.000Z</time>
        <extensions>
          <geotracker:meta c="2.39" s="5.13" />
        </extensions>
      </trkpt>
      <trkpt lat="18.794175" lon="99.031923">
        <ele>253</ele>
        <time>2021-02-01T05:27:54.000Z</time>
        <extensions>
          <geotracker:meta c="2.04" s="8.71" />
        </extensions>
      </trkpt>
      <trkpt lat="18.794103" lon="99.032079">
        <ele>254</ele>
        <time>2021-02-01T05:27:56.000Z</time>
        <extensions>
          <geotracker:meta c="1.93" s="8.41" />
        </extensions>
      </trkpt>
      <trkpt lat="18.794033" lon="99.032215">
        <ele>255</ele>
        <time>2021-02-01T05:27:58.000Z</time>
        <extensions>
          <geotracker:meta c="1.9" s="7.28" />
        </extensions>
      </trkpt>
      <trkpt lat="18.79399" lon="99.032341">
        <ele>256</ele>
        <time>2021-02-01T05:28:00.000Z</time>
        <extensions>
          <geotracker:meta c="1.8" s="6.99" />
        </extensions>
      </trkpt>
      <trkpt lat="18.793962" lon="99.03248">
        <ele>256</ele>
        <time>2021-02-01T05:28:02.000Z</time>
        <extensions>
          <geotracker:meta c="1.68" s="6.38" />
        </extensions>
      </trkpt>
      <trkpt lat="18.793982" lon="99.032667">
        <ele>255</ele>
        <time>2021-02-01T05:28:04.000Z</time>
        <extensions>
          <geotracker:meta c="1.28" s="9.12" />
        </extensions>
      </trkpt>
      <trkpt lat="18.794022" lon="99.032837">
        <ele>255</ele>
        <time>2021-02-01T05:28:06.000Z</time>
        <extensions>
          <geotracker:meta c="1.25" s="8.63" />
        </extensions>
      </trkpt>
      <trkpt lat="18.794076" lon="99.032989">
        <ele>256</ele>
        <time>2021-02-01T05:28:08.000Z</time>
        <extensions>
          <geotracker:meta c="1.19" s="7.93" />
        </extensions>
      </trkpt>
      <trkpt lat="18.794107" lon="99.033079">
        <ele>256</ele>
        <time>2021-02-01T05:28:09.000Z</time>
        <extensions>
          <geotracker:meta c="1.19" s="8.45" />
        </extensions>
      </trkpt>
      <trkpt lat="18.794135" lon="99.033178">
        <ele>257</ele>
        <time>2021-02-01T05:28:10.000Z</time>
        <extensions>
          <geotracker:meta c="1.18" s="9.58" />
        </extensions>
      </trkpt>
      <trkpt lat="18.79417" lon="99.033268">
        <ele>257</ele>
        <time>2021-02-01T05:28:11.000Z</time>
        <extensions>
          <geotracker:meta c="1.13" s="9.29" />
        </extensions>
      </trkpt>
      <trkpt lat="18.79423" lon="99.033417">
        <ele>257</ele>
        <time>2021-02-01T05:28:13.000Z</time>
        <extensions>
          <geotracker:meta c="1.11" s="5.93" />
        </extensions>
      </trkpt>
      <trkpt lat="18.794282" lon="99.033553">
        <ele>258</ele>
        <time>2021-02-01T05:28:15.000Z</time>
        <extensions>
          <geotracker:meta c="1.27" s="7.34" />
        </extensions>
      </trkpt>
      <trkpt lat="18.79435" lon="99.033713">
        <ele>257</ele>
        <time>2021-02-01T05:28:17.000Z</time>
        <extensions>
          <geotracker:meta c="1.17" s="10.51" />
        </extensions>
      </trkpt>
      <trkpt lat="18.794387" lon="99.033814">
        <ele>257</ele>
        <time>2021-02-01T05:28:18.000Z</time>
        <extensions>
          <geotracker:meta c="1.14" s="11.21" />
        </extensions>
      </trkpt>
      <trkpt lat="18.794431" lon="99.033924">
        <ele>257</ele>
        <time>2021-02-01T05:28:19.000Z</time>
        <extensions>
          <geotracker:meta c="1.12" s="11.92" />
        </extensions>
      </trkpt>
      <trkpt lat="18.79447" lon="99.034027">
        <ele>256</ele>
        <time>2021-02-01T05:28:20.000Z</time>
        <extensions>
          <geotracker:meta c="1.12" s="10.73" />
        </extensions>
      </trkpt>
      <trkpt lat="18.794506" lon="99.034123">
        <ele>256</ele>
        <time>2021-02-01T05:28:21.000Z</time>
        <extensions>
          <geotracker:meta c="1.14" s="9.8" />
        </extensions>
      </trkpt>
      <trkpt lat="18.794575" lon="99.03429">
        <ele>256</ele>
        <time>2021-02-01T05:28:23.000Z</time>
        <extensions>
          <geotracker:meta c="1.17" s="9.72" />
        </extensions>
      </trkpt>
      <trkpt lat="18.794648" lon="99.034465">
        <ele>256</ele>
        <time>2021-02-01T05:28:25.000Z</time>
        <extensions>
          <geotracker:meta c="1.19" s="9.76" />
        </extensions>
      </trkpt>
      <trkpt lat="18.79471" lon="99.034616">
        <ele>257</ele>
        <time>2021-02-01T05:28:27.000Z</time>
        <extensions>
          <geotracker:meta c="1.19" s="5.58" />
        </extensions>
      </trkpt>
      <trkpt lat="18.794755" lon="99.034702">
        <ele>258</ele>
        <time>2021-02-01T05:28:29.000Z</time>
        <extensions>
          <geotracker:meta c="1.15" s="3.81" />
        </extensions>
      </trkpt>
      <trkpt lat="18.794808" lon="99.03482">
        <ele>258</ele>
        <time>2021-02-01T05:28:31.000Z</time>
        <extensions>
          <geotracker:meta c="1.05" s="7.08" />
        </extensions>
      </trkpt>
      <trkpt lat="18.79489" lon="99.034936">
        <ele>258</ele>
        <time>2021-02-01T05:28:33.000Z</time>
        <extensions>
          <geotracker:meta c="0.77" s="5.44" />
        </extensions>
      </trkpt>
      <trkpt lat="18.794978" lon="99.035002">
        <ele>259</ele>
        <time>2021-02-01T05:28:36.000Z</time>
        <extensions>
          <geotracker:meta c="0.36" s="3.33" />
        </extensions>
      </trkpt>
      <trkpt lat="18.795081" lon="99.035063">
        <ele>260</ele>
        <time>2021-02-01T05:28:38.000Z</time>
        <extensions>
          <geotracker:meta c="0.51" s="7.33" />
        </extensions>
      </trkpt>
      <trkpt lat="18.795209" lon="99.035177">
        <ele>260</ele>
        <time>2021-02-01T05:28:40.000Z</time>
        <extensions>
          <geotracker:meta c="0.81" s="8.56" />
        </extensions>
      </trkpt>
      <trkpt lat="18.795324" lon="99.035266">
        <ele>261</ele>
        <time>2021-02-01T05:28:42.000Z</time>
        <extensions>
          <geotracker:meta c="0.74" s="7.49" />
        </extensions>
      </trkpt>
      <trkpt lat="18.795458" lon="99.035279">
        <ele>261</ele>
        <time>2021-02-01T05:28:44.000Z</time>
        <extensions>
          <geotracker:meta c="0.12" s="7.51" />
        </extensions>
      </trkpt>
      <trkpt lat="18.795608" lon="99.035238">
        <ele>261</ele>
        <time>2021-02-01T05:28:46.000Z</time>
        <extensions>
          <geotracker:meta c="5.9" s="8.03" />
        </extensions>
      </trkpt>
      <trkpt lat="18.795732" lon="99.035129">
        <ele>261</ele>
        <time>2021-02-01T05:28:48.000Z</time>
        <extensions>
          <geotracker:meta c="5.31" s="9.77" />
        </extensions>
      </trkpt>
      <trkpt lat="18.795773" lon="99.035039">
        <ele>262</ele>
        <time>2021-02-01T05:28:49.000Z</time>
        <extensions>
          <geotracker:meta c="5.07" s="10.42" />
        </extensions>
      </trkpt>
      <trkpt lat="18.795806" lon="99.034933">
        <ele>262</ele>
        <time>2021-02-01T05:28:50.000Z</time>
        <extensions>
          <geotracker:meta c="4.97" s="11.37" />
        </extensions>
      </trkpt>
      <trkpt lat="18.795838" lon="99.034827">
        <ele>262</ele>
        <time>2021-02-01T05:28:51.000Z</time>
        <extensions>
          <geotracker:meta c="4.96" s="11.87" />
        </extensions>
      </trkpt>
      <trkpt lat="18.795875" lon="99.034709">
        <ele>262</ele>
        <time>2021-02-01T05:28:52.000Z</time>
        <extensions>
          <geotracker:meta c="4.99" s="12.55" />
        </extensions>
      </trkpt>
      <trkpt lat="18.795913" lon="99.034594">
        <ele>262</ele>
        <time>2021-02-01T05:28:53.000Z</time>
        <extensions>
          <geotracker:meta c="4.97" s="11.79" />
        </extensions>
      </trkpt>
      <trkpt lat="18.795942" lon="99.034488">
        <ele>263</ele>
        <time>2021-02-01T05:28:54.000Z</time>
        <extensions>
          <geotracker:meta c="4.98" s="11.78" />
        </extensions>
      </trkpt>
      <trkpt lat="18.795972" lon="99.034386">
        <ele>263</ele>
        <time>2021-02-01T05:28:55.000Z</time>
        <extensions>
          <geotracker:meta c="4.98" s="10.87" />
        </extensions>
      </trkpt>
      <trkpt lat="18.795995" lon="99.034294">
        <ele>263</ele>
        <time>2021-02-01T05:28:56.000Z</time>
        <extensions>
          <geotracker:meta c="5" s="10.1" />
        </extensions>
      </trkpt>
      <trkpt lat="18.796024" lon="99.034196">
        <ele>263</ele>
        <time>2021-02-01T05:28:57.000Z</time>
        <extensions>
          <geotracker:meta c="4.99" s="10.62" />
        </extensions>
      </trkpt>
      <trkpt lat="18.796056" lon="99.034094">
        <ele>263</ele>
        <time>2021-02-01T05:28:58.000Z</time>
        <extensions>
          <geotracker:meta c="5.03" s="11.36" />
        </extensions>
      </trkpt>
      <trkpt lat="18.796088" lon="99.033992">
        <ele>263</ele>
        <time>2021-02-01T05:28:59.000Z</time>
        <extensions>
          <geotracker:meta c="5.06" s="11.03" />
        </extensions>
      </trkpt>
      <trkpt lat="18.796122" lon="99.033898">
        <ele>264</ele>
        <time>2021-02-01T05:29:00.000Z</time>
        <extensions>
          <geotracker:meta c="5.06" s="10.02" />
        </extensions>
      </trkpt>
      <trkpt lat="18.796157" lon="99.03374">
        <ele>265</ele>
        <time>2021-02-01T05:29:02.000Z</time>
        <extensions>
          <geotracker:meta c="4.95" s="8.08" />
        </extensions>
      </trkpt>
      <trkpt lat="18.79617" lon="99.033626">
        <ele>266</ele>
        <time>2021-02-01T05:29:04.000Z</time>
        <extensions>
          <geotracker:meta c="4.9" s="5.1" />
        </extensions>
      </trkpt>
      <trkpt lat="18.796204" lon="99.033516">
        <ele>265</ele>
        <time>2021-02-01T05:29:08.000Z</time>
        <extensions>
          <geotracker:meta c="5.03" s="4.6" />
        </extensions>
      </trkpt>
      <trkpt lat="18.79626" lon="99.033345">
        <ele>265</ele>
        <time>2021-02-01T05:29:10.000Z</time>
        <extensions>
          <geotracker:meta c="5.05" s="8.99" />
        </extensions>
      </trkpt>
      <trkpt lat="18.796273" lon="99.033247">
        <ele>265</ele>
        <time>2021-02-01T05:29:11.000Z</time>
        <extensions>
          <geotracker:meta c="4.95" s="8.9" />
        </extensions>
      </trkpt>
      <trkpt lat="18.796259" lon="99.033109">
        <ele>266</ele>
        <time>2021-02-01T05:29:13.000Z</time>
        <extensions>
          <geotracker:meta c="4.55" s="6.68" />
        </extensions>
      </trkpt>
      <trkpt lat="18.796249" lon="99.033008">
        <ele>266</ele>
        <time>2021-02-01T05:29:15.000Z</time>
        <extensions>
          <geotracker:meta c="4.42" s="3.65" />
        </extensions>
      </trkpt>
    </trkseg>
  </trk>
</gpx>